<svg width="24" height="24" viewBox="0 0 24 24" fill="none" xmlns="http://www.w3.org/2000/svg">
<path d="M13.5 6H5.25C4.00736 6 3 7.00736 3 8.25V18.75C3 19.9926 4.00736 21 5.25 21H15.75C16.9926 21 18 19.9926 18 18.75V10.5M7.5 16.5L21 3M21 3L15.75 3M21 3V8.25" stroke="black" stroke-width="1.5" stroke-linecap="round" stroke-linejoin="round"/>
</svg>
