<svg width="24" height="24" viewBox="0 0 24 24" fill="none" xmlns="http://www.w3.org/2000/svg">
<path d="M3.75 12H20.25M3.75 15.75H20.25M3.75 19.5H20.25M5.625 4.5H18.375C19.4105 4.5 20.25 5.33947 20.25 6.375C20.25 7.41053 19.4105 8.25 18.375 8.25H5.625C4.58947 8.25 3.75 7.41053 3.75 6.375C3.75 5.33947 4.58947 4.5 5.625 4.5Z" stroke="black" stroke-width="1.5" stroke-linecap="round" stroke-linejoin="round"/>
</svg>
