<svg width="24" height="24" viewBox="0 0 24 24" fill="none" xmlns="http://www.w3.org/2000/svg">
<path d="M3.75 9.77602C3.86204 9.7589 3.97699 9.75 4.09427 9.75H19.9057C20.023 9.75 20.138 9.7589 20.25 9.77602M3.75 9.77602C2.55399 9.9588 1.68983 11.0788 1.86689 12.3182L2.72403 18.3182C2.88238 19.4267 3.8317 20.25 4.95142 20.25H19.0486C20.1683 20.25 21.1176 19.4267 21.276 18.3182L22.1331 12.3182C22.3102 11.0788 21.446 9.9588 20.25 9.77602M3.75 9.77602V6C3.75 4.75736 4.75736 3.75 6 3.75H9.87868C10.2765 3.75 10.658 3.90804 10.9393 4.18934L13.0607 6.31066C13.342 6.59197 13.7235 6.75 14.1213 6.75H18C19.2426 6.75 20.25 7.75736 20.25 9V9.77602" stroke="white" stroke-width="1.5" stroke-linecap="round" stroke-linejoin="round"/>
</svg>
