<svg width="24" height="24" viewBox="0 0 24 24" fill="none" xmlns="http://www.w3.org/2000/svg">
<circle cx="19" cy="19" r="2.25" stroke="white" stroke-width="1.5"/>
<circle cx="5" cy="19" r="2.25" stroke="white" stroke-width="1.5"/>
<circle cx="12" cy="19" r="2.25" stroke="white" stroke-width="1.5"/>
<circle cx="12" cy="5" r="2.25" stroke="white" stroke-width="1.5"/>
<path d="M5 17V13C5 11.8954 5.89543 11 7 11H17C18.1046 11 19 11.8954 19 13V17M12 7V17" stroke="white" stroke-width="1.5"/>
</svg>
