<svg width="24" height="24" viewBox="0 0 24 24" fill="none" xmlns="http://www.w3.org/2000/svg">
<path d="M19.5 5.5L3.5 21.5" stroke="white" stroke-width="1.5" stroke-linecap="round" stroke-linejoin="round"/>
<path d="M6 9.75C6 7.26472 8.01472 5.25 10.5 5.25C12.3309 5.25 13.9079 6.34401 14.6103 7.91485L15.7255 6.79965C14.6955 4.97914 12.7419 3.75 10.5 3.75C7.18629 3.75 4.5 6.43629 4.5 9.75C4.5 9.91686 4.50683 10.0822 4.52024 10.2459C2.73627 11.084 1.5 12.8968 1.5 15C1.5 16.6472 2.25857 18.1172 3.44542 19.0797L4.51422 18.0109C3.5953 17.3274 3 16.2332 3 15C3 13.3404 4.07863 11.9307 5.57515 11.4375C5.93213 11.3199 6.1469 10.9561 6.07751 10.5867C6.02669 10.3162 6 10.0365 6 9.75Z" fill="white"/>
<path d="M8.72487 18.75L7.22487 20.25H18C20.4853 20.25 22.5 18.2353 22.5 15.75C22.5 14.0653 21.5744 12.5981 20.2058 11.827C20.2349 11.6386 20.25 11.4459 20.25 11.25C20.25 10.1445 19.7716 9.15067 19.0105 8.46433L17.9475 9.52737C18.4382 9.9401 18.75 10.5586 18.75 11.25C18.75 11.5124 18.7054 11.7629 18.6239 11.9951C18.4893 12.3788 18.6851 12.8 19.0653 12.9444C20.1974 13.3746 21 14.4695 21 15.75C21 17.4069 19.6569 18.75 18 18.75H8.72487Z" fill="white"/>
</svg>
